[
    {
        "value": "51",
        "label": "Apéro"
    },
    {
        "value": "376",
        "label": "Déjeuner de famille"
    },
    {
        "value": "375",
        "label": "Brunch"
    },
    {
        "value": "218",
        "label": "Dîner entre amis"
    },
    {
        "value": "155",
        "label": "Barbecue"
    },
    {
        "value": "374",
        "label": "Pique nique"
    },
    {
        "value": "373",
        "label": "Au coin du feu"
    },
    {
        "value": "372",
        "label": "Dans le canap"
    },
    {
        "value": "39",
        "label": "En amoureux"
    },
    {
        "value": "211",
        "label": "Pour les grandes nouvelles"
    },
    {
        "value": "371",
        "label": "Pour la teuf"
    },
    {
        "value": "76",
        "label": "Pour la classe"
    },
    {
        "value": "449",
        "label": "Dîner de famille"
    },
    {
        "value": "450",
        "label": "Repas d'affaire"
    },
    {
        "value": "452",
        "label": "Déjeuner"
    },
    {
        "value": "451",
        "label": "Pique-nique"
    }
]